-- Merging decision tree log ---
manifest
ADDED from D:\Android_Projects\Tuna\tunatutorial\app\src\main\AndroidManifest.xml:2:1-23:12
INJECTED from D:\Android_Projects\Tuna\tunatutorial\app\src\main\AndroidManifest.xml:2:1-23:12
INJECTED from D:\Android_Projects\Tuna\tunatutorial\app\src\main\AndroidManifest.xml:2:1-23:12
INJECTED from D:\Android_Projects\Tuna\tunatutorial\app\src\main\AndroidManifest.xml:2:1-23:12
MERGED from [com.android.support:design:28.0.0] C:\Users\yusuf\.gradle\caches\transforms-1\files-1.1\design-28.0.0.aar\921a04a0ce78db0ce52fd76a5097ebe3\AndroidManifest.xml:17:1-24:12
MERGED from [com.android.support:appcompat-v7:28.0.0] C:\Users\yusuf\.gradle\caches\transforms-1\files-1.1\appcompat-v7-28.0.0.aar\f16a9f7e40c85a4471fd151147605fcc\AndroidManifest.xml:17:1-22:12
MERGED from [com.android.support.constraint:constraint-layout:1.1.3] C:\Users\yusuf\.gradle\caches\transforms-1\files-1.1\constraint-layout-1.1.3.aar\1fd214517d1f2d7678c68617cfb99d71\AndroidManifest.xml:2:1-11:12
MERGED from [com.firebaseui:firebase-ui-database:4.1.0] C:\Users\yusuf\.gradle\caches\transforms-1\files-1.1\firebase-ui-database-4.1.0.aar\1aae8eddb8a833ee814cc88cce5f6850\AndroidManifest.xml:2:1-13:12
MERGED from [com.google.firebase:firebase-database:16.0.1] C:\Users\yusuf\.gradle\caches\transforms-1\files-1.1\firebase-database-16.0.1.aar\3ec5464b7f3b4d0978a52329b8976425\AndroidManifest.xml:2:1-8:12
MERGED from [com.google.firebase:firebase-core:16.0.1] C:\Users\yusuf\.gradle\caches\transforms-1\files-1.1\firebase-core-16.0.1.aar\5c46a8babf9767ffc046b389460c6c50\AndroidManifest.xml:2:1-9:12
MERGED from [com.android.support:animated-vector-drawable:28.0.0] C:\Users\yusuf\.gradle\caches\transforms-1\files-1.1\animated-vector-drawable-28.0.0.aar\a5ebbc8d106ce65d560ffb4a041b2830\AndroidManifest.xml:17:1-22:12
MERGED from [com.android.support:support-vector-drawable:28.0.0] C:\Users\yusuf\.gradle\caches\transforms-1\files-1.1\support-vector-drawable-28.0.0.aar\2fd0d55d65871378433486928d4a58e6\AndroidManifest.xml:17:1-22:12
MERGED from [com.android.support:transition:28.0.0] C:\Users\yusuf\.gradle\caches\transforms-1\files-1.1\transition-28.0.0.aar\7910c360b7ee478350e8373f9d220b19\AndroidManifest.xml:17:1-22:12
MERGED from [com.android.support:recyclerview-v7:28.0.0] C:\Users\yusuf\.gradle\caches\transforms-1\files-1.1\recyclerview-v7-28.0.0.aar\783d9fdbca2265c965dfe4771fe7b2dc\AndroidManifest.xml:17:1-22:12
MERGED from [com.google.firebase:firebase-database-connection:16.0.1] C:\Users\yusuf\.gradle\caches\transforms-1\files-1.1\firebase-database-connection-16.0.1.aar\7a87fafb9473f720b1c7c937926e62c8\AndroidManifest.xml:2:1-10:12
MERGED from [com.google.firebase:firebase-measurement-connector-impl:16.0.1] C:\Users\yusuf\.gradle\caches\transforms-1\files-1.1\firebase-measurement-connector-impl-16.0.1.aar\97b65a479396487971b310df00322e4b\AndroidManifest.xml:17:1-34:12
MERGED from [com.google.firebase:firebase-analytics:16.0.1] C:\Users\yusuf\.gradle\caches\transforms-1\files-1.1\firebase-analytics-16.0.1.aar\595601872184515886f1e677ebaffeb3\AndroidManifest.xml:17:1-55:12
MERGED from [com.google.firebase:firebase-analytics-impl:16.1.1] C:\Users\yusuf\.gradle\caches\transforms-1\files-1.1\firebase-analytics-impl-16.1.1.aar\a51e965db430d9051ee9f56fcddd3d44\AndroidManifest.xml:17:1-40:12
MERGED from [com.google.firebase:firebase-iid:16.0.0] C:\Users\yusuf\.gradle\caches\transforms-1\files-1.1\firebase-iid-16.0.0.aar\50294a9d5a6e9c0971f2637cf04318e9\AndroidManifest.xml:17:1-65:12
MERGED from [com.google.firebase:firebase-common:16.0.0] C:\Users\yusuf\.gradle\caches\transforms-1\files-1.1\firebase-common-16.0.0.aar\c4ca5a39e0ebd97010292d0cbe3f7002\AndroidManifest.xml:2:1-16:12
MERGED from [com.google.firebase:firebase-iid-interop:16.0.0] C:\Users\yusuf\.gradle\caches\transforms-1\files-1.1\firebase-iid-interop-16.0.0.aar\c8ec61063dcdc9a3ba4a3a30584c7963\AndroidManifest.xml:2:1-10:12
MERGED from [com.google.android.gms:play-services-base:15.0.1] C:\Users\yusuf\.gradle\caches\transforms-1\files-1.1\play-services-base-15.0.1.aar\6c69b7ecc14d4fa07c1377a37f83b37b\AndroidManifest.xml:17:1-29:12
MERGED from [com.google.android.gms:play-services-tasks:15.0.1] C:\Users\yusuf\.gradle\caches\transforms-1\files-1.1\play-services-tasks-15.0.1.aar\260b8aaedf9f3fc593d5dee4a2a07c25\AndroidManifest.xml:2:1-9:12
MERGED from [com.google.firebase:firebase-database-collection:15.0.1] C:\Users\yusuf\.gradle\caches\transforms-1\files-1.1\firebase-database-collection-15.0.1.aar\f6fbc16f2f98aeb7728f6ab361683640\AndroidManifest.xml:2:1-8:12
MERGED from [com.google.android.gms:play-services-stats:15.0.1] C:\Users\yusuf\.gradle\caches\transforms-1\files-1.1\play-services-stats-15.0.1.aar\9f7f6e4080be04c9fc6fdf99db1ab840\AndroidManifest.xml:2:1-9:12
MERGED from [com.google.firebase:firebase-measurement-connector:16.0.0] C:\Users\yusuf\.gradle\caches\transforms-1\files-1.1\firebase-measurement-connector-16.0.0.aar\d3c805009c968d0b9ca2d59e9744fbaa\AndroidManifest.xml:17:1-25:12
MERGED from [com.google.android.gms:play-services-ads-identifier:15.0.1] C:\Users\yusuf\.gradle\caches\transforms-1\files-1.1\play-services-ads-identifier-15.0.1.aar\7982a5adcbee761d319314b9e1a124eb\AndroidManifest.xml:17:1-24:12
MERGED from [com.google.android.gms:play-services-basement:15.0.1] C:\Users\yusuf\.gradle\caches\transforms-1\files-1.1\play-services-basement-15.0.1.aar\c06bedfce507ade715bc1e7610c24a68\AndroidManifest.xml:17:1-28:12
MERGED from [com.android.support:support-v4:27.1.1] C:\Users\yusuf\.gradle\caches\transforms-1\files-1.1\support-v4-27.1.1.aar\0cb4c8323bf33639cd17437b5a142930\AndroidManifest.xml:17:1-22:12
MERGED from [com.android.support:support-media-compat:27.1.1] C:\Users\yusuf\.gradle\caches\transforms-1\files-1.1\support-media-compat-27.1.1.aar\d597632ecdf94b40f544321b14e95fc2\AndroidManifest.xml:17:1-22:12
MERGED from [com.android.support:support-fragment:28.0.0] C:\Users\yusuf\.gradle\caches\transforms-1\files-1.1\support-fragment-28.0.0.aar\b818e224aeecede1fb761b086dbe71fb\AndroidManifest.xml:17:1-22:12
MERGED from [com.android.support:support-core-ui:28.0.0] C:\Users\yusuf\.gradle\caches\transforms-1\files-1.1\support-core-ui-28.0.0.aar\1066e00cf269cd032ada6917176689b3\AndroidManifest.xml:17:1-22:12
MERGED from [com.android.support:support-core-utils:28.0.0] C:\Users\yusuf\.gradle\caches\transforms-1\files-1.1\support-core-utils-28.0.0.aar\1acff3db8db562f8a574ec7fb7c6fc84\AndroidManifest.xml:17:1-22:12
MERGED from [com.android.support:loader:28.0.0] C:\Users\yusuf\.gradle\caches\transforms-1\files-1.1\loader-28.0.0.aar\d55af0d4e67eaabbe1d6bf4fb8665165\AndroidManifest.xml:17:1-22:12
MERGED from [com.android.support:viewpager:28.0.0] C:\Users\yusuf\.gradle\caches\transforms-1\files-1.1\viewpager-28.0.0.aar\44867aadfe0816c7c15e483c896d1221\AndroidManifest.xml:17:1-22:12
MERGED from [com.android.support:coordinatorlayout:28.0.0] C:\Users\yusuf\.gradle\caches\transforms-1\files-1.1\coordinatorlayout-28.0.0.aar\37b2ac19ff564afbca56cdf1f5bb3aa6\AndroidManifest.xml:17:1-22:12
MERGED from [com.android.support:drawerlayout:28.0.0] C:\Users\yusuf\.gradle\caches\transforms-1\files-1.1\drawerlayout-28.0.0.aar\792935a7bc1fe081b272ffbae8e38d0c\AndroidManifest.xml:17:1-22:12
MERGED from [com.android.support:slidingpanelayout:28.0.0] C:\Users\yusuf\.gradle\caches\transforms-1\files-1.1\slidingpanelayout-28.0.0.aar\5774f49555910581784fd02b3e5ed2ba\AndroidManifest.xml:17:1-22:12
MERGED from [com.android.support:customview:28.0.0] C:\Users\yusuf\.gradle\caches\transforms-1\files-1.1\customview-28.0.0.aar\775d2954ce705e9772b311202114b643\AndroidManifest.xml:17:1-22:12
MERGED from [com.android.support:swiperefreshlayout:28.0.0] C:\Users\yusuf\.gradle\caches\transforms-1\files-1.1\swiperefreshlayout-28.0.0.aar\6cee56dbd0a64133eff5b6cb9ed2ecf3\AndroidManifest.xml:17:1-22:12
MERGED from [com.android.support:asynclayoutinflater:28.0.0] C:\Users\yusuf\.gradle\caches\transforms-1\files-1.1\asynclayoutinflater-28.0.0.aar\f408d0a886b0495992860cbea176e15f\AndroidManifest.xml:17:1-22:12
MERGED from [com.android.support:support-compat:28.0.0] C:\Users\yusuf\.gradle\caches\transforms-1\files-1.1\support-compat-28.0.0.aar\53f10ecbcd0f555a55bd63fe414e5c4d\AndroidManifest.xml:17:1-24:12
MERGED from [com.android.support:versionedparcelable:28.0.0] C:\Users\yusuf\.gradle\caches\transforms-1\files-1.1\versionedparcelable-28.0.0.aar\5b60f104774183eea27b1dfca344cf59\AndroidManifest.xml:17:1-25:12
MERGED from [com.android.support:cursoradapter:28.0.0] C:\Users\yusuf\.gradle\caches\transforms-1\files-1.1\cursoradapter-28.0.0.aar\47943607ad9c3ee930323af709ec3fd6\AndroidManifest.xml:17:1-22:12
MERGED from [com.firebaseui:firebase-ui-common:4.1.0] C:\Users\yusuf\.gradle\caches\transforms-1\files-1.1\firebase-ui-common-4.1.0.aar\c74b8f77e87f644e8cff16fe34aec4bf\AndroidManifest.xml:2:1-11:12
MERGED from [com.android.support:cardview-v7:28.0.0] C:\Users\yusuf\.gradle\caches\transforms-1\files-1.1\cardview-v7-28.0.0.aar\f877377c0cc4e6e13f3ac2c893bc2298\AndroidManifest.xml:17:1-22:12
MERGED from [android.arch.lifecycle:runtime:1.1.1] C:\Users\yusuf\.gradle\caches\transforms-1\files-1.1\runtime-1.1.1.aar\e9cb32420ef327f2d4ecb02b0fbe428e\AndroidManifest.xml:17:1-22:12
MERGED from [android.arch.lifecycle:viewmodel:1.1.1] C:\Users\yusuf\.gradle\caches\transforms-1\files-1.1\viewmodel-1.1.1.aar\74c37412b2e2d0aec1aa9fa7b432b3ae\AndroidManifest.xml:17:1-22:12
MERGED from [android.arch.lifecycle:livedata:1.1.1] C:\Users\yusuf\.gradle\caches\transforms-1\files-1.1\livedata-1.1.1.aar\f5cfd4ea4482cce525cd8a029a02f591\AndroidManifest.xml:17:1-22:12
MERGED from [android.arch.lifecycle:livedata-core:1.1.1] C:\Users\yusuf\.gradle\caches\transforms-1\files-1.1\livedata-core-1.1.1.aar\23c474bf73f23fc7e9dff67772c19ede\AndroidManifest.xml:17:1-22:12
MERGED from [android.arch.core:runtime:1.1.1] C:\Users\yusuf\.gradle\caches\transforms-1\files-1.1\runtime-1.1.1.aar\b003152d83eec59747cf3e607334bcd0\AndroidManifest.xml:17:1-22:12
MERGED from [com.android.support:documentfile:28.0.0] C:\Users\yusuf\.gradle\caches\transforms-1\files-1.1\documentfile-28.0.0.aar\5a7bc8542b6ee7b11e4f4462b4b5cd41\AndroidManifest.xml:17:1-22:12
MERGED from [com.android.support:localbroadcastmanager:28.0.0] C:\Users\yusuf\.gradle\caches\transforms-1\files-1.1\localbroadcastmanager-28.0.0.aar\6fe3bf85240eb1b7b2cc00c6b133c289\AndroidManifest.xml:17:1-22:12
MERGED from [com.android.support:print:28.0.0] C:\Users\yusuf\.gradle\caches\transforms-1\files-1.1\print-28.0.0.aar\0963640ed76062fe2003e3ddeb7de66b\AndroidManifest.xml:17:1-22:12
MERGED from [com.android.support:interpolator:28.0.0] C:\Users\yusuf\.gradle\caches\transforms-1\files-1.1\interpolator-28.0.0.aar\8fca46aee151528f6e584d88809f8f99\AndroidManifest.xml:17:1-22:12
MERGED from [com.google.android.gms:play-services-measurement-base:16.0.0] C:\Users\yusuf\.gradle\caches\transforms-1\files-1.1\play-services-measurement-base-16.0.0.aar\0ff55d4a9aa0d321037f99c2ef62d63e\AndroidManifest.xml:17:1-24:12
INJECTED from D:\Android_Projects\Tuna\tunatutorial\app\src\main\AndroidManifest.xml:2:1-23:12
INJECTED from D:\Android_Projects\Tuna\tunatutorial\app\src\main\AndroidManifest.xml:2:1-23:12
INJECTED from D:\Android_Projects\Tuna\tunatutorial\app\src\main\AndroidManifest.xml:2:1-23:12
	package
		ADDED from D:\Android_Projects\Tuna\tunatutorial\app\src\main\AndroidManifest.xml:3:5-52
		INJECTED from D:\Android_Projects\Tuna\tunatutorial\app\src\main\AndroidManifest.xml
		INJECTED from D:\Android_Projects\Tuna\tunatutorial\app\src\main\AndroidManifest.xml
	android:versionName
		INJECTED from D:\Android_Projects\Tuna\tunatutorial\app\src\main\AndroidManifest.xml
		ADDED from D:\Android_Projects\Tuna\tunatutorial\app\src\main\AndroidManifest.xml:2:1-23:12
		INJECTED from D:\Android_Projects\Tuna\tunatutorial\app\src\main\AndroidManifest.xml
	android:versionCode
		INJECTED from D:\Android_Projects\Tuna\tunatutorial\app\src\main\AndroidManifest.xml
		ADDED from D:\Android_Projects\Tuna\tunatutorial\app\src\main\AndroidManifest.xml:2:1-23:12
		INJECTED from D:\Android_Projects\Tuna\tunatutorial\app\src\main\AndroidManifest.xml
	xmlns:android
		ADDED from D:\Android_Projects\Tuna\tunatutorial\app\src\main\AndroidManifest.xml:2:11-69
application
ADDED from D:\Android_Projects\Tuna\tunatutorial\app\src\main\AndroidManifest.xml:5:5-21:19
MERGED from [com.android.support:design:28.0.0] C:\Users\yusuf\.gradle\caches\transforms-1\files-1.1\design-28.0.0.aar\921a04a0ce78db0ce52fd76a5097ebe3\AndroidManifest.xml:22:5-20
MERGED from [com.android.support:design:28.0.0] C:\Users\yusuf\.gradle\caches\transforms-1\files-1.1\design-28.0.0.aar\921a04a0ce78db0ce52fd76a5097ebe3\AndroidManifest.xml:22:5-20
MERGED from [com.android.support.constraint:constraint-layout:1.1.3] C:\Users\yusuf\.gradle\caches\transforms-1\files-1.1\constraint-layout-1.1.3.aar\1fd214517d1f2d7678c68617cfb99d71\AndroidManifest.xml:9:5-20
MERGED from [com.android.support.constraint:constraint-layout:1.1.3] C:\Users\yusuf\.gradle\caches\transforms-1\files-1.1\constraint-layout-1.1.3.aar\1fd214517d1f2d7678c68617cfb99d71\AndroidManifest.xml:9:5-20
MERGED from [com.google.firebase:firebase-core:16.0.1] C:\Users\yusuf\.gradle\caches\transforms-1\files-1.1\firebase-core-16.0.1.aar\5c46a8babf9767ffc046b389460c6c50\AndroidManifest.xml:7:5-20
MERGED from [com.google.firebase:firebase-core:16.0.1] C:\Users\yusuf\.gradle\caches\transforms-1\files-1.1\firebase-core-16.0.1.aar\5c46a8babf9767ffc046b389460c6c50\AndroidManifest.xml:7:5-20
MERGED from [com.google.firebase:firebase-measurement-connector-impl:16.0.1] C:\Users\yusuf\.gradle\caches\transforms-1\files-1.1\firebase-measurement-connector-impl-16.0.1.aar\97b65a479396487971b310df00322e4b\AndroidManifest.xml:26:5-32:19
MERGED from [com.google.firebase:firebase-measurement-connector-impl:16.0.1] C:\Users\yusuf\.gradle\caches\transforms-1\files-1.1\firebase-measurement-connector-impl-16.0.1.aar\97b65a479396487971b310df00322e4b\AndroidManifest.xml:26:5-32:19
MERGED from [com.google.firebase:firebase-analytics:16.0.1] C:\Users\yusuf\.gradle\caches\transforms-1\files-1.1\firebase-analytics-16.0.1.aar\595601872184515886f1e677ebaffeb3\AndroidManifest.xml:28:5-53:19
MERGED from [com.google.firebase:firebase-analytics:16.0.1] C:\Users\yusuf\.gradle\caches\transforms-1\files-1.1\firebase-analytics-16.0.1.aar\595601872184515886f1e677ebaffeb3\AndroidManifest.xml:28:5-53:19
MERGED from [com.google.firebase:firebase-analytics-impl:16.1.1] C:\Users\yusuf\.gradle\caches\transforms-1\files-1.1\firebase-analytics-impl-16.1.1.aar\a51e965db430d9051ee9f56fcddd3d44\AndroidManifest.xml:28:5-38:19
MERGED from [com.google.firebase:firebase-analytics-impl:16.1.1] C:\Users\yusuf\.gradle\caches\transforms-1\files-1.1\firebase-analytics-impl-16.1.1.aar\a51e965db430d9051ee9f56fcddd3d44\AndroidManifest.xml:28:5-38:19
MERGED from [com.google.firebase:firebase-iid:16.0.0] C:\Users\yusuf\.gradle\caches\transforms-1\files-1.1\firebase-iid-16.0.0.aar\50294a9d5a6e9c0971f2637cf04318e9\AndroidManifest.xml:34:5-63:19
MERGED from [com.google.firebase:firebase-iid:16.0.0] C:\Users\yusuf\.gradle\caches\transforms-1\files-1.1\firebase-iid-16.0.0.aar\50294a9d5a6e9c0971f2637cf04318e9\AndroidManifest.xml:34:5-63:19
MERGED from [com.google.firebase:firebase-common:16.0.0] C:\Users\yusuf\.gradle\caches\transforms-1\files-1.1\firebase-common-16.0.0.aar\c4ca5a39e0ebd97010292d0cbe3f7002\AndroidManifest.xml:8:5-14:19
MERGED from [com.google.firebase:firebase-common:16.0.0] C:\Users\yusuf\.gradle\caches\transforms-1\files-1.1\firebase-common-16.0.0.aar\c4ca5a39e0ebd97010292d0cbe3f7002\AndroidManifest.xml:8:5-14:19
MERGED from [com.google.firebase:firebase-iid-interop:16.0.0] C:\Users\yusuf\.gradle\caches\transforms-1\files-1.1\firebase-iid-interop-16.0.0.aar\c8ec61063dcdc9a3ba4a3a30584c7963\AndroidManifest.xml:7:5-8:19
MERGED from [com.google.firebase:firebase-iid-interop:16.0.0] C:\Users\yusuf\.gradle\caches\transforms-1\files-1.1\firebase-iid-interop-16.0.0.aar\c8ec61063dcdc9a3ba4a3a30584c7963\AndroidManifest.xml:7:5-8:19
MERGED from [com.google.android.gms:play-services-base:15.0.1] C:\Users\yusuf\.gradle\caches\transforms-1\files-1.1\play-services-base-15.0.1.aar\6c69b7ecc14d4fa07c1377a37f83b37b\AndroidManifest.xml:22:5-27:19
MERGED from [com.google.android.gms:play-services-base:15.0.1] C:\Users\yusuf\.gradle\caches\transforms-1\files-1.1\play-services-base-15.0.1.aar\6c69b7ecc14d4fa07c1377a37f83b37b\AndroidManifest.xml:22:5-27:19
MERGED from [com.google.android.gms:play-services-tasks:15.0.1] C:\Users\yusuf\.gradle\caches\transforms-1\files-1.1\play-services-tasks-15.0.1.aar\260b8aaedf9f3fc593d5dee4a2a07c25\AndroidManifest.xml:7:5-20
MERGED from [com.google.android.gms:play-services-tasks:15.0.1] C:\Users\yusuf\.gradle\caches\transforms-1\files-1.1\play-services-tasks-15.0.1.aar\260b8aaedf9f3fc593d5dee4a2a07c25\AndroidManifest.xml:7:5-20
MERGED from [com.google.android.gms:play-services-stats:15.0.1] C:\Users\yusuf\.gradle\caches\transforms-1\files-1.1\play-services-stats-15.0.1.aar\9f7f6e4080be04c9fc6fdf99db1ab840\AndroidManifest.xml:7:5-20
MERGED from [com.google.android.gms:play-services-stats:15.0.1] C:\Users\yusuf\.gradle\caches\transforms-1\files-1.1\play-services-stats-15.0.1.aar\9f7f6e4080be04c9fc6fdf99db1ab840\AndroidManifest.xml:7:5-20
MERGED from [com.google.firebase:firebase-measurement-connector:16.0.0] C:\Users\yusuf\.gradle\caches\transforms-1\files-1.1\firebase-measurement-connector-16.0.0.aar\d3c805009c968d0b9ca2d59e9744fbaa\AndroidManifest.xml:22:5-23:19
MERGED from [com.google.firebase:firebase-measurement-connector:16.0.0] C:\Users\yusuf\.gradle\caches\transforms-1\files-1.1\firebase-measurement-connector-16.0.0.aar\d3c805009c968d0b9ca2d59e9744fbaa\AndroidManifest.xml:22:5-23:19
MERGED from [com.google.android.gms:play-services-ads-identifier:15.0.1] C:\Users\yusuf\.gradle\caches\transforms-1\files-1.1\play-services-ads-identifier-15.0.1.aar\7982a5adcbee761d319314b9e1a124eb\AndroidManifest.xml:22:5-20
MERGED from [com.google.android.gms:play-services-ads-identifier:15.0.1] C:\Users\yusuf\.gradle\caches\transforms-1\files-1.1\play-services-ads-identifier-15.0.1.aar\7982a5adcbee761d319314b9e1a124eb\AndroidManifest.xml:22:5-20
MERGED from [com.google.android.gms:play-services-basement:15.0.1] C:\Users\yusuf\.gradle\caches\transforms-1\files-1.1\play-services-basement-15.0.1.aar\c06bedfce507ade715bc1e7610c24a68\AndroidManifest.xml:22:5-26:19
MERGED from [com.google.android.gms:play-services-basement:15.0.1] C:\Users\yusuf\.gradle\caches\transforms-1\files-1.1\play-services-basement-15.0.1.aar\c06bedfce507ade715bc1e7610c24a68\AndroidManifest.xml:22:5-26:19
MERGED from [com.android.support:support-compat:28.0.0] C:\Users\yusuf\.gradle\caches\transforms-1\files-1.1\support-compat-28.0.0.aar\53f10ecbcd0f555a55bd63fe414e5c4d\AndroidManifest.xml:22:5-94
MERGED from [com.android.support:support-compat:28.0.0] C:\Users\yusuf\.gradle\caches\transforms-1\files-1.1\support-compat-28.0.0.aar\53f10ecbcd0f555a55bd63fe414e5c4d\AndroidManifest.xml:22:5-94
MERGED from [com.android.support:versionedparcelable:28.0.0] C:\Users\yusuf\.gradle\caches\transforms-1\files-1.1\versionedparcelable-28.0.0.aar\5b60f104774183eea27b1dfca344cf59\AndroidManifest.xml:22:5-23:19
MERGED from [com.android.support:versionedparcelable:28.0.0] C:\Users\yusuf\.gradle\caches\transforms-1\files-1.1\versionedparcelable-28.0.0.aar\5b60f104774183eea27b1dfca344cf59\AndroidManifest.xml:22:5-23:19
MERGED from [com.google.android.gms:play-services-measurement-base:16.0.0] C:\Users\yusuf\.gradle\caches\transforms-1\files-1.1\play-services-measurement-base-16.0.0.aar\0ff55d4a9aa0d321037f99c2ef62d63e\AndroidManifest.xml:22:5-20
MERGED from [com.google.android.gms:play-services-measurement-base:16.0.0] C:\Users\yusuf\.gradle\caches\transforms-1\files-1.1\play-services-measurement-base-16.0.0.aar\0ff55d4a9aa0d321037f99c2ef62d63e\AndroidManifest.xml:22:5-20
	android:appComponentFactory
		ADDED from [com.android.support:support-compat:28.0.0] C:\Users\yusuf\.gradle\caches\transforms-1\files-1.1\support-compat-28.0.0.aar\53f10ecbcd0f555a55bd63fe414e5c4d\AndroidManifest.xml:22:18-91
	android:supportsRtl
		ADDED from D:\Android_Projects\Tuna\tunatutorial\app\src\main\AndroidManifest.xml:10:9-35
	android:label
		ADDED from D:\Android_Projects\Tuna\tunatutorial\app\src\main\AndroidManifest.xml:8:9-41
	android:roundIcon
		ADDED from D:\Android_Projects\Tuna\tunatutorial\app\src\main\AndroidManifest.xml:9:9-54
	android:icon
		ADDED from D:\Android_Projects\Tuna\tunatutorial\app\src\main\AndroidManifest.xml:7:9-43
	android:allowBackup
		ADDED from D:\Android_Projects\Tuna\tunatutorial\app\src\main\AndroidManifest.xml:6:9-35
	android:theme
		ADDED from D:\Android_Projects\Tuna\tunatutorial\app\src\main\AndroidManifest.xml:11:9-65
activity#com.etxample.grumwelllap.listtutorial.PersonDetailActivity
ADDED from D:\Android_Projects\Tuna\tunatutorial\app\src\main\AndroidManifest.xml:12:9-67
	android:name
		ADDED from D:\Android_Projects\Tuna\tunatutorial\app\src\main\AndroidManifest.xml:12:19-55
activity#com.etxample.grumwelllap.listtutorial.MainActivity
ADDED from D:\Android_Projects\Tuna\tunatutorial\app\src\main\AndroidManifest.xml:13:9-20:20
	android:name
		ADDED from D:\Android_Projects\Tuna\tunatutorial\app\src\main\AndroidManifest.xml:13:19-47
intent-filter#action:name:android.intent.action.MAIN+action:name:android.intent.action.VIEW+category:name:android.intent.category.LAUNCHER
ADDED from D:\Android_Projects\Tuna\tunatutorial\app\src\main\AndroidManifest.xml:14:13-19:29
action#android.intent.action.MAIN
ADDED from D:\Android_Projects\Tuna\tunatutorial\app\src\main\AndroidManifest.xml:15:17-69
	android:name
		ADDED from D:\Android_Projects\Tuna\tunatutorial\app\src\main\AndroidManifest.xml:15:25-66
action#android.intent.action.VIEW
ADDED from D:\Android_Projects\Tuna\tunatutorial\app\src\main\AndroidManifest.xml:16:17-69
	android:name
		ADDED from D:\Android_Projects\Tuna\tunatutorial\app\src\main\AndroidManifest.xml:16:25-66
category#android.intent.category.LAUNCHER
ADDED from D:\Android_Projects\Tuna\tunatutorial\app\src\main\AndroidManifest.xml:18:17-77
	android:name
		ADDED from D:\Android_Projects\Tuna\tunatutorial\app\src\main\AndroidManifest.xml:18:27-74
uses-sdk
INJECTED from D:\Android_Projects\Tuna\tunatutorial\app\src\main\AndroidManifest.xml reason: use-sdk injection requested
INJECTED from D:\Android_Projects\Tuna\tunatutorial\app\src\main\AndroidManifest.xml
INJECTED from D:\Android_Projects\Tuna\tunatutorial\app\src\main\AndroidManifest.xml
MERGED from [com.android.support:design:28.0.0] C:\Users\yusuf\.gradle\caches\transforms-1\files-1.1\design-28.0.0.aar\921a04a0ce78db0ce52fd76a5097ebe3\AndroidManifest.xml:20:5-44
MERGED from [com.android.support:design:28.0.0] C:\Users\yusuf\.gradle\caches\transforms-1\files-1.1\design-28.0.0.aar\921a04a0ce78db0ce52fd76a5097ebe3\AndroidManifest.xml:20:5-44
MERGED from [com.android.support:appcompat-v7:28.0.0] C:\Users\yusuf\.gradle\caches\transforms-1\files-1.1\appcompat-v7-28.0.0.aar\f16a9f7e40c85a4471fd151147605fcc\AndroidManifest.xml:20:5-44
MERGED from [com.android.support:appcompat-v7:28.0.0] C:\Users\yusuf\.gradle\caches\transforms-1\files-1.1\appcompat-v7-28.0.0.aar\f16a9f7e40c85a4471fd151147605fcc\AndroidManifest.xml:20:5-44
MERGED from [com.android.support.constraint:constraint-layout:1.1.3] C:\Users\yusuf\.gradle\caches\transforms-1\files-1.1\constraint-layout-1.1.3.aar\1fd214517d1f2d7678c68617cfb99d71\AndroidManifest.xml:5:5-7:41
MERGED from [com.android.support.constraint:constraint-layout:1.1.3] C:\Users\yusuf\.gradle\caches\transforms-1\files-1.1\constraint-layout-1.1.3.aar\1fd214517d1f2d7678c68617cfb99d71\AndroidManifest.xml:5:5-7:41
MERGED from [com.firebaseui:firebase-ui-database:4.1.0] C:\Users\yusuf\.gradle\caches\transforms-1\files-1.1\firebase-ui-database-4.1.0.aar\1aae8eddb8a833ee814cc88cce5f6850\AndroidManifest.xml:7:5-9:41
MERGED from [com.firebaseui:firebase-ui-database:4.1.0] C:\Users\yusuf\.gradle\caches\transforms-1\files-1.1\firebase-ui-database-4.1.0.aar\1aae8eddb8a833ee814cc88cce5f6850\AndroidManifest.xml:7:5-9:41
MERGED from [com.google.firebase:firebase-database:16.0.1] C:\Users\yusuf\.gradle\caches\transforms-1\files-1.1\firebase-database-16.0.1.aar\3ec5464b7f3b4d0978a52329b8976425\AndroidManifest.xml:6:5-44
MERGED from [com.google.firebase:firebase-database:16.0.1] C:\Users\yusuf\.gradle\caches\transforms-1\files-1.1\firebase-database-16.0.1.aar\3ec5464b7f3b4d0978a52329b8976425\AndroidManifest.xml:6:5-44
MERGED from [com.google.firebase:firebase-core:16.0.1] C:\Users\yusuf\.gradle\caches\transforms-1\files-1.1\firebase-core-16.0.1.aar\5c46a8babf9767ffc046b389460c6c50\AndroidManifest.xml:5:5-44
MERGED from [com.google.firebase:firebase-core:16.0.1] C:\Users\yusuf\.gradle\caches\transforms-1\files-1.1\firebase-core-16.0.1.aar\5c46a8babf9767ffc046b389460c6c50\AndroidManifest.xml:5:5-44
MERGED from [com.android.support:animated-vector-drawable:28.0.0] C:\Users\yusuf\.gradle\caches\transforms-1\files-1.1\animated-vector-drawable-28.0.0.aar\a5ebbc8d106ce65d560ffb4a041b2830\AndroidManifest.xml:20:5-44
MERGED from [com.android.support:animated-vector-drawable:28.0.0] C:\Users\yusuf\.gradle\caches\transforms-1\files-1.1\animated-vector-drawable-28.0.0.aar\a5ebbc8d106ce65d560ffb4a041b2830\AndroidManifest.xml:20:5-44
MERGED from [com.android.support:support-vector-drawable:28.0.0] C:\Users\yusuf\.gradle\caches\transforms-1\files-1.1\support-vector-drawable-28.0.0.aar\2fd0d55d65871378433486928d4a58e6\AndroidManifest.xml:20:5-44
MERGED from [com.android.support:support-vector-drawable:28.0.0] C:\Users\yusuf\.gradle\caches\transforms-1\files-1.1\support-vector-drawable-28.0.0.aar\2fd0d55d65871378433486928d4a58e6\AndroidManifest.xml:20:5-44
MERGED from [com.android.support:transition:28.0.0] C:\Users\yusuf\.gradle\caches\transforms-1\files-1.1\transition-28.0.0.aar\7910c360b7ee478350e8373f9d220b19\AndroidManifest.xml:20:5-44
MERGED from [com.android.support:transition:28.0.0] C:\Users\yusuf\.gradle\caches\transforms-1\files-1.1\transition-28.0.0.aar\7910c360b7ee478350e8373f9d220b19\AndroidManifest.xml:20:5-44
MERGED from [com.android.support:recyclerview-v7:28.0.0] C:\Users\yusuf\.gradle\caches\transforms-1\files-1.1\recyclerview-v7-28.0.0.aar\783d9fdbca2265c965dfe4771fe7b2dc\AndroidManifest.xml:20:5-44
MERGED from [com.android.support:recyclerview-v7:28.0.0] C:\Users\yusuf\.gradle\caches\transforms-1\files-1.1\recyclerview-v7-28.0.0.aar\783d9fdbca2265c965dfe4771fe7b2dc\AndroidManifest.xml:20:5-44
MERGED from [com.google.firebase:firebase-database-connection:16.0.1] C:\Users\yusuf\.gradle\caches\transforms-1\files-1.1\firebase-database-connection-16.0.1.aar\7a87fafb9473f720b1c7c937926e62c8\AndroidManifest.xml:6:5-44
MERGED from [com.google.firebase:firebase-database-connection:16.0.1] C:\Users\yusuf\.gradle\caches\transforms-1\files-1.1\firebase-database-connection-16.0.1.aar\7a87fafb9473f720b1c7c937926e62c8\AndroidManifest.xml:6:5-44
MERGED from [com.google.firebase:firebase-measurement-connector-impl:16.0.1] C:\Users\yusuf\.gradle\caches\transforms-1\files-1.1\firebase-measurement-connector-impl-16.0.1.aar\97b65a479396487971b310df00322e4b\AndroidManifest.xml:20:5-44
MERGED from [com.google.firebase:firebase-measurement-connector-impl:16.0.1] C:\Users\yusuf\.gradle\caches\transforms-1\files-1.1\firebase-measurement-connector-impl-16.0.1.aar\97b65a479396487971b310df00322e4b\AndroidManifest.xml:20:5-44
MERGED from [com.google.firebase:firebase-analytics:16.0.1] C:\Users\yusuf\.gradle\caches\transforms-1\files-1.1\firebase-analytics-16.0.1.aar\595601872184515886f1e677ebaffeb3\AndroidManifest.xml:20:5-44
MERGED from [com.google.firebase:firebase-analytics:16.0.1] C:\Users\yusuf\.gradle\caches\transforms-1\files-1.1\firebase-analytics-16.0.1.aar\595601872184515886f1e677ebaffeb3\AndroidManifest.xml:20:5-44
MERGED from [com.google.firebase:firebase-analytics-impl:16.1.1] C:\Users\yusuf\.gradle\caches\transforms-1\files-1.1\firebase-analytics-impl-16.1.1.aar\a51e965db430d9051ee9f56fcddd3d44\AndroidManifest.xml:20:5-44
MERGED from [com.google.firebase:firebase-analytics-impl:16.1.1] C:\Users\yusuf\.gradle\caches\transforms-1\files-1.1\firebase-analytics-impl-16.1.1.aar\a51e965db430d9051ee9f56fcddd3d44\AndroidManifest.xml:20:5-44
MERGED from [com.google.firebase:firebase-iid:16.0.0] C:\Users\yusuf\.gradle\caches\transforms-1\files-1.1\firebase-iid-16.0.0.aar\50294a9d5a6e9c0971f2637cf04318e9\AndroidManifest.xml:20:5-44
MERGED from [com.google.firebase:firebase-iid:16.0.0] C:\Users\yusuf\.gradle\caches\transforms-1\files-1.1\firebase-iid-16.0.0.aar\50294a9d5a6e9c0971f2637cf04318e9\AndroidManifest.xml:20:5-44
MERGED from [com.google.firebase:firebase-common:16.0.0] C:\Users\yusuf\.gradle\caches\transforms-1\files-1.1\firebase-common-16.0.0.aar\c4ca5a39e0ebd97010292d0cbe3f7002\AndroidManifest.xml:5:5-6:37
MERGED from [com.google.firebase:firebase-common:16.0.0] C:\Users\yusuf\.gradle\caches\transforms-1\files-1.1\firebase-common-16.0.0.aar\c4ca5a39e0ebd97010292d0cbe3f7002\AndroidManifest.xml:5:5-6:37
MERGED from [com.google.firebase:firebase-iid-interop:16.0.0] C:\Users\yusuf\.gradle\caches\transforms-1\files-1.1\firebase-iid-interop-16.0.0.aar\c8ec61063dcdc9a3ba4a3a30584c7963\AndroidManifest.xml:5:5-44
MERGED from [com.google.firebase:firebase-iid-interop:16.0.0] C:\Users\yusuf\.gradle\caches\transforms-1\files-1.1\firebase-iid-interop-16.0.0.aar\c8ec61063dcdc9a3ba4a3a30584c7963\AndroidManifest.xml:5:5-44
MERGED from [com.google.android.gms:play-services-base:15.0.1] C:\Users\yusuf\.gradle\caches\transforms-1\files-1.1\play-services-base-15.0.1.aar\6c69b7ecc14d4fa07c1377a37f83b37b\AndroidManifest.xml:20:5-44
MERGED from [com.google.android.gms:play-services-base:15.0.1] C:\Users\yusuf\.gradle\caches\transforms-1\files-1.1\play-services-base-15.0.1.aar\6c69b7ecc14d4fa07c1377a37f83b37b\AndroidManifest.xml:20:5-44
MERGED from [com.google.android.gms:play-services-tasks:15.0.1] C:\Users\yusuf\.gradle\caches\transforms-1\files-1.1\play-services-tasks-15.0.1.aar\260b8aaedf9f3fc593d5dee4a2a07c25\AndroidManifest.xml:5:5-44
MERGED from [com.google.android.gms:play-services-tasks:15.0.1] C:\Users\yusuf\.gradle\caches\transforms-1\files-1.1\play-services-tasks-15.0.1.aar\260b8aaedf9f3fc593d5dee4a2a07c25\AndroidManifest.xml:5:5-44
MERGED from [com.google.firebase:firebase-database-collection:15.0.1] C:\Users\yusuf\.gradle\caches\transforms-1\files-1.1\firebase-database-collection-15.0.1.aar\f6fbc16f2f98aeb7728f6ab361683640\AndroidManifest.xml:6:5-44
MERGED from [com.google.firebase:firebase-database-collection:15.0.1] C:\Users\yusuf\.gradle\caches\transforms-1\files-1.1\firebase-database-collection-15.0.1.aar\f6fbc16f2f98aeb7728f6ab361683640\AndroidManifest.xml:6:5-44
MERGED from [com.google.android.gms:play-services-stats:15.0.1] C:\Users\yusuf\.gradle\caches\transforms-1\files-1.1\play-services-stats-15.0.1.aar\9f7f6e4080be04c9fc6fdf99db1ab840\AndroidManifest.xml:5:5-44
MERGED from [com.google.android.gms:play-services-stats:15.0.1] C:\Users\yusuf\.gradle\caches\transforms-1\files-1.1\play-services-stats-15.0.1.aar\9f7f6e4080be04c9fc6fdf99db1ab840\AndroidManifest.xml:5:5-44
MERGED from [com.google.firebase:firebase-measurement-connector:16.0.0] C:\Users\yusuf\.gradle\caches\transforms-1\files-1.1\firebase-measurement-connector-16.0.0.aar\d3c805009c968d0b9ca2d59e9744fbaa\AndroidManifest.xml:20:5-44
MERGED from [com.google.firebase:firebase-measurement-connector:16.0.0] C:\Users\yusuf\.gradle\caches\transforms-1\files-1.1\firebase-measurement-connector-16.0.0.aar\d3c805009c968d0b9ca2d59e9744fbaa\AndroidManifest.xml:20:5-44
MERGED from [com.google.android.gms:play-services-ads-identifier:15.0.1] C:\Users\yusuf\.gradle\caches\transforms-1\files-1.1\play-services-ads-identifier-15.0.1.aar\7982a5adcbee761d319314b9e1a124eb\AndroidManifest.xml:20:5-44
MERGED from [com.google.android.gms:play-services-ads-identifier:15.0.1] C:\Users\yusuf\.gradle\caches\transforms-1\files-1.1\play-services-ads-identifier-15.0.1.aar\7982a5adcbee761d319314b9e1a124eb\AndroidManifest.xml:20:5-44
MERGED from [com.google.android.gms:play-services-basement:15.0.1] C:\Users\yusuf\.gradle\caches\transforms-1\files-1.1\play-services-basement-15.0.1.aar\c06bedfce507ade715bc1e7610c24a68\AndroidManifest.xml:20:5-44
MERGED from [com.google.android.gms:play-services-basement:15.0.1] C:\Users\yusuf\.gradle\caches\transforms-1\files-1.1\play-services-basement-15.0.1.aar\c06bedfce507ade715bc1e7610c24a68\AndroidManifest.xml:20:5-44
MERGED from [com.android.support:support-v4:27.1.1] C:\Users\yusuf\.gradle\caches\transforms-1\files-1.1\support-v4-27.1.1.aar\0cb4c8323bf33639cd17437b5a142930\AndroidManifest.xml:20:5-44
MERGED from [com.android.support:support-v4:27.1.1] C:\Users\yusuf\.gradle\caches\transforms-1\files-1.1\support-v4-27.1.1.aar\0cb4c8323bf33639cd17437b5a142930\AndroidManifest.xml:20:5-44
MERGED from [com.android.support:support-media-compat:27.1.1] C:\Users\yusuf\.gradle\caches\transforms-1\files-1.1\support-media-compat-27.1.1.aar\d597632ecdf94b40f544321b14e95fc2\AndroidManifest.xml:20:5-44
MERGED from [com.android.support:support-media-compat:27.1.1] C:\Users\yusuf\.gradle\caches\transforms-1\files-1.1\support-media-compat-27.1.1.aar\d597632ecdf94b40f544321b14e95fc2\AndroidManifest.xml:20:5-44
MERGED from [com.android.support:support-fragment:28.0.0] C:\Users\yusuf\.gradle\caches\transforms-1\files-1.1\support-fragment-28.0.0.aar\b818e224aeecede1fb761b086dbe71fb\AndroidManifest.xml:20:5-44
MERGED from [com.android.support:support-fragment:28.0.0] C:\Users\yusuf\.gradle\caches\transforms-1\files-1.1\support-fragment-28.0.0.aar\b818e224aeecede1fb761b086dbe71fb\AndroidManifest.xml:20:5-44
MERGED from [com.android.support:support-core-ui:28.0.0] C:\Users\yusuf\.gradle\caches\transforms-1\files-1.1\support-core-ui-28.0.0.aar\1066e00cf269cd032ada6917176689b3\AndroidManifest.xml:20:5-44
MERGED from [com.android.support:support-core-ui:28.0.0] C:\Users\yusuf\.gradle\caches\transforms-1\files-1.1\support-core-ui-28.0.0.aar\1066e00cf269cd032ada6917176689b3\AndroidManifest.xml:20:5-44
MERGED from [com.android.support:support-core-utils:28.0.0] C:\Users\yusuf\.gradle\caches\transforms-1\files-1.1\support-core-utils-28.0.0.aar\1acff3db8db562f8a574ec7fb7c6fc84\AndroidManifest.xml:20:5-44
MERGED from [com.android.support:support-core-utils:28.0.0] C:\Users\yusuf\.gradle\caches\transforms-1\files-1.1\support-core-utils-28.0.0.aar\1acff3db8db562f8a574ec7fb7c6fc84\AndroidManifest.xml:20:5-44
MERGED from [com.android.support:loader:28.0.0] C:\Users\yusuf\.gradle\caches\transforms-1\files-1.1\loader-28.0.0.aar\d55af0d4e67eaabbe1d6bf4fb8665165\AndroidManifest.xml:20:5-44
MERGED from [com.android.support:loader:28.0.0] C:\Users\yusuf\.gradle\caches\transforms-1\files-1.1\loader-28.0.0.aar\d55af0d4e67eaabbe1d6bf4fb8665165\AndroidManifest.xml:20:5-44
MERGED from [com.android.support:viewpager:28.0.0] C:\Users\yusuf\.gradle\caches\transforms-1\files-1.1\viewpager-28.0.0.aar\44867aadfe0816c7c15e483c896d1221\AndroidManifest.xml:20:5-44
MERGED from [com.android.support:viewpager:28.0.0] C:\Users\yusuf\.gradle\caches\transforms-1\files-1.1\viewpager-28.0.0.aar\44867aadfe0816c7c15e483c896d1221\AndroidManifest.xml:20:5-44
MERGED from [com.android.support:coordinatorlayout:28.0.0] C:\Users\yusuf\.gradle\caches\transforms-1\files-1.1\coordinatorlayout-28.0.0.aar\37b2ac19ff564afbca56cdf1f5bb3aa6\AndroidManifest.xml:20:5-44
MERGED from [com.android.support:coordinatorlayout:28.0.0] C:\Users\yusuf\.gradle\caches\transforms-1\files-1.1\coordinatorlayout-28.0.0.aar\37b2ac19ff564afbca56cdf1f5bb3aa6\AndroidManifest.xml:20:5-44
MERGED from [com.android.support:drawerlayout:28.0.0] C:\Users\yusuf\.gradle\caches\transforms-1\files-1.1\drawerlayout-28.0.0.aar\792935a7bc1fe081b272ffbae8e38d0c\AndroidManifest.xml:20:5-44
MERGED from [com.android.support:drawerlayout:28.0.0] C:\Users\yusuf\.gradle\caches\transforms-1\files-1.1\drawerlayout-28.0.0.aar\792935a7bc1fe081b272ffbae8e38d0c\AndroidManifest.xml:20:5-44
MERGED from [com.android.support:slidingpanelayout:28.0.0] C:\Users\yusuf\.gradle\caches\transforms-1\files-1.1\slidingpanelayout-28.0.0.aar\5774f49555910581784fd02b3e5ed2ba\AndroidManifest.xml:20:5-44
MERGED from [com.android.support:slidingpanelayout:28.0.0] C:\Users\yusuf\.gradle\caches\transforms-1\files-1.1\slidingpanelayout-28.0.0.aar\5774f49555910581784fd02b3e5ed2ba\AndroidManifest.xml:20:5-44
MERGED from [com.android.support:customview:28.0.0] C:\Users\yusuf\.gradle\caches\transforms-1\files-1.1\customview-28.0.0.aar\775d2954ce705e9772b311202114b643\AndroidManifest.xml:20:5-44
MERGED from [com.android.support:customview:28.0.0] C:\Users\yusuf\.gradle\caches\transforms-1\files-1.1\customview-28.0.0.aar\775d2954ce705e9772b311202114b643\AndroidManifest.xml:20:5-44
MERGED from [com.android.support:swiperefreshlayout:28.0.0] C:\Users\yusuf\.gradle\caches\transforms-1\files-1.1\swiperefreshlayout-28.0.0.aar\6cee56dbd0a64133eff5b6cb9ed2ecf3\AndroidManifest.xml:20:5-44
MERGED from [com.android.support:swiperefreshlayout:28.0.0] C:\Users\yusuf\.gradle\caches\transforms-1\files-1.1\swiperefreshlayout-28.0.0.aar\6cee56dbd0a64133eff5b6cb9ed2ecf3\AndroidManifest.xml:20:5-44
MERGED from [com.android.support:asynclayoutinflater:28.0.0] C:\Users\yusuf\.gradle\caches\transforms-1\files-1.1\asynclayoutinflater-28.0.0.aar\f408d0a886b0495992860cbea176e15f\AndroidManifest.xml:20:5-44
MERGED from [com.android.support:asynclayoutinflater:28.0.0] C:\Users\yusuf\.gradle\caches\transforms-1\files-1.1\asynclayoutinflater-28.0.0.aar\f408d0a886b0495992860cbea176e15f\AndroidManifest.xml:20:5-44
MERGED from [com.android.support:support-compat:28.0.0] C:\Users\yusuf\.gradle\caches\transforms-1\files-1.1\support-compat-28.0.0.aar\53f10ecbcd0f555a55bd63fe414e5c4d\AndroidManifest.xml:20:5-44
MERGED from [com.android.support:support-compat:28.0.0] C:\Users\yusuf\.gradle\caches\transforms-1\files-1.1\support-compat-28.0.0.aar\53f10ecbcd0f555a55bd63fe414e5c4d\AndroidManifest.xml:20:5-44
MERGED from [com.android.support:versionedparcelable:28.0.0] C:\Users\yusuf\.gradle\caches\transforms-1\files-1.1\versionedparcelable-28.0.0.aar\5b60f104774183eea27b1dfca344cf59\AndroidManifest.xml:20:5-44
MERGED from [com.android.support:versionedparcelable:28.0.0] C:\Users\yusuf\.gradle\caches\transforms-1\files-1.1\versionedparcelable-28.0.0.aar\5b60f104774183eea27b1dfca344cf59\AndroidManifest.xml:20:5-44
MERGED from [com.android.support:cursoradapter:28.0.0] C:\Users\yusuf\.gradle\caches\transforms-1\files-1.1\cursoradapter-28.0.0.aar\47943607ad9c3ee930323af709ec3fd6\AndroidManifest.xml:20:5-44
MERGED from [com.android.support:cursoradapter:28.0.0] C:\Users\yusuf\.gradle\caches\transforms-1\files-1.1\cursoradapter-28.0.0.aar\47943607ad9c3ee930323af709ec3fd6\AndroidManifest.xml:20:5-44
MERGED from [com.firebaseui:firebase-ui-common:4.1.0] C:\Users\yusuf\.gradle\caches\transforms-1\files-1.1\firebase-ui-common-4.1.0.aar\c74b8f77e87f644e8cff16fe34aec4bf\AndroidManifest.xml:7:5-9:41
MERGED from [com.firebaseui:firebase-ui-common:4.1.0] C:\Users\yusuf\.gradle\caches\transforms-1\files-1.1\firebase-ui-common-4.1.0.aar\c74b8f77e87f644e8cff16fe34aec4bf\AndroidManifest.xml:7:5-9:41
MERGED from [com.android.support:cardview-v7:28.0.0] C:\Users\yusuf\.gradle\caches\transforms-1\files-1.1\cardview-v7-28.0.0.aar\f877377c0cc4e6e13f3ac2c893bc2298\AndroidManifest.xml:20:5-44
MERGED from [com.android.support:cardview-v7:28.0.0] C:\Users\yusuf\.gradle\caches\transforms-1\files-1.1\cardview-v7-28.0.0.aar\f877377c0cc4e6e13f3ac2c893bc2298\AndroidManifest.xml:20:5-44
MERGED from [android.arch.lifecycle:runtime:1.1.1] C:\Users\yusuf\.gradle\caches\transforms-1\files-1.1\runtime-1.1.1.aar\e9cb32420ef327f2d4ecb02b0fbe428e\AndroidManifest.xml:20:5-44
MERGED from [android.arch.lifecycle:runtime:1.1.1] C:\Users\yusuf\.gradle\caches\transforms-1\files-1.1\runtime-1.1.1.aar\e9cb32420ef327f2d4ecb02b0fbe428e\AndroidManifest.xml:20:5-44
MERGED from [android.arch.lifecycle:viewmodel:1.1.1] C:\Users\yusuf\.gradle\caches\transforms-1\files-1.1\viewmodel-1.1.1.aar\74c37412b2e2d0aec1aa9fa7b432b3ae\AndroidManifest.xml:20:5-44
MERGED from [android.arch.lifecycle:viewmodel:1.1.1] C:\Users\yusuf\.gradle\caches\transforms-1\files-1.1\viewmodel-1.1.1.aar\74c37412b2e2d0aec1aa9fa7b432b3ae\AndroidManifest.xml:20:5-44
MERGED from [android.arch.lifecycle:livedata:1.1.1] C:\Users\yusuf\.gradle\caches\transforms-1\files-1.1\livedata-1.1.1.aar\f5cfd4ea4482cce525cd8a029a02f591\AndroidManifest.xml:20:5-44
MERGED from [android.arch.lifecycle:livedata:1.1.1] C:\Users\yusuf\.gradle\caches\transforms-1\files-1.1\livedata-1.1.1.aar\f5cfd4ea4482cce525cd8a029a02f591\AndroidManifest.xml:20:5-44
MERGED from [android.arch.lifecycle:livedata-core:1.1.1] C:\Users\yusuf\.gradle\caches\transforms-1\files-1.1\livedata-core-1.1.1.aar\23c474bf73f23fc7e9dff67772c19ede\AndroidManifest.xml:20:5-44
MERGED from [android.arch.lifecycle:livedata-core:1.1.1] C:\Users\yusuf\.gradle\caches\transforms-1\files-1.1\livedata-core-1.1.1.aar\23c474bf73f23fc7e9dff67772c19ede\AndroidManifest.xml:20:5-44
MERGED from [android.arch.core:runtime:1.1.1] C:\Users\yusuf\.gradle\caches\transforms-1\files-1.1\runtime-1.1.1.aar\b003152d83eec59747cf3e607334bcd0\AndroidManifest.xml:20:5-44
MERGED from [android.arch.core:runtime:1.1.1] C:\Users\yusuf\.gradle\caches\transforms-1\files-1.1\runtime-1.1.1.aar\b003152d83eec59747cf3e607334bcd0\AndroidManifest.xml:20:5-44
MERGED from [com.android.support:documentfile:28.0.0] C:\Users\yusuf\.gradle\caches\transforms-1\files-1.1\documentfile-28.0.0.aar\5a7bc8542b6ee7b11e4f4462b4b5cd41\AndroidManifest.xml:20:5-44
MERGED from [com.android.support:documentfile:28.0.0] C:\Users\yusuf\.gradle\caches\transforms-1\files-1.1\documentfile-28.0.0.aar\5a7bc8542b6ee7b11e4f4462b4b5cd41\AndroidManifest.xml:20:5-44
MERGED from [com.android.support:localbroadcastmanager:28.0.0] C:\Users\yusuf\.gradle\caches\transforms-1\files-1.1\localbroadcastmanager-28.0.0.aar\6fe3bf85240eb1b7b2cc00c6b133c289\AndroidManifest.xml:20:5-44
MERGED from [com.android.support:localbroadcastmanager:28.0.0] C:\Users\yusuf\.gradle\caches\transforms-1\files-1.1\localbroadcastmanager-28.0.0.aar\6fe3bf85240eb1b7b2cc00c6b133c289\AndroidManifest.xml:20:5-44
MERGED from [com.android.support:print:28.0.0] C:\Users\yusuf\.gradle\caches\transforms-1\files-1.1\print-28.0.0.aar\0963640ed76062fe2003e3ddeb7de66b\AndroidManifest.xml:20:5-44
MERGED from [com.android.support:print:28.0.0] C:\Users\yusuf\.gradle\caches\transforms-1\files-1.1\print-28.0.0.aar\0963640ed76062fe2003e3ddeb7de66b\AndroidManifest.xml:20:5-44
MERGED from [com.android.support:interpolator:28.0.0] C:\Users\yusuf\.gradle\caches\transforms-1\files-1.1\interpolator-28.0.0.aar\8fca46aee151528f6e584d88809f8f99\AndroidManifest.xml:20:5-44
MERGED from [com.android.support:interpolator:28.0.0] C:\Users\yusuf\.gradle\caches\transforms-1\files-1.1\interpolator-28.0.0.aar\8fca46aee151528f6e584d88809f8f99\AndroidManifest.xml:20:5-44
MERGED from [com.google.android.gms:play-services-measurement-base:16.0.0] C:\Users\yusuf\.gradle\caches\transforms-1\files-1.1\play-services-measurement-base-16.0.0.aar\0ff55d4a9aa0d321037f99c2ef62d63e\AndroidManifest.xml:20:5-44
MERGED from [com.google.android.gms:play-services-measurement-base:16.0.0] C:\Users\yusuf\.gradle\caches\transforms-1\files-1.1\play-services-measurement-base-16.0.0.aar\0ff55d4a9aa0d321037f99c2ef62d63e\AndroidManifest.xml:20:5-44
INJECTED from D:\Android_Projects\Tuna\tunatutorial\app\src\main\AndroidManifest.xml
INJECTED from D:\Android_Projects\Tuna\tunatutorial\app\src\main\AndroidManifest.xml
	android:targetSdkVersion
		INJECTED from D:\Android_Projects\Tuna\tunatutorial\app\src\main\AndroidManifest.xml
		ADDED from D:\Android_Projects\Tuna\tunatutorial\app\src\main\AndroidManifest.xml
		INJECTED from D:\Android_Projects\Tuna\tunatutorial\app\src\main\AndroidManifest.xml
	android:minSdkVersion
		INJECTED from D:\Android_Projects\Tuna\tunatutorial\app\src\main\AndroidManifest.xml
		ADDED from D:\Android_Projects\Tuna\tunatutorial\app\src\main\AndroidManifest.xml
		INJECTED from D:\Android_Projects\Tuna\tunatutorial\app\src\main\AndroidManifest.xml
uses-permission#android.permission.INTERNET
ADDED from [com.firebaseui:firebase-ui-database:4.1.0] C:\Users\yusuf\.gradle\caches\transforms-1\files-1.1\firebase-ui-database-4.1.0.aar\1aae8eddb8a833ee814cc88cce5f6850\AndroidManifest.xml:11:5-67
MERGED from [com.google.firebase:firebase-database-connection:16.0.1] C:\Users\yusuf\.gradle\caches\transforms-1\files-1.1\firebase-database-connection-16.0.1.aar\7a87fafb9473f720b1c7c937926e62c8\AndroidManifest.xml:8:5-67
MERGED from [com.google.firebase:firebase-database-connection:16.0.1] C:\Users\yusuf\.gradle\caches\transforms-1\files-1.1\firebase-database-connection-16.0.1.aar\7a87fafb9473f720b1c7c937926e62c8\AndroidManifest.xml:8:5-67
MERGED from [com.google.firebase:firebase-measurement-connector-impl:16.0.1] C:\Users\yusuf\.gradle\caches\transforms-1\files-1.1\firebase-measurement-connector-impl-16.0.1.aar\97b65a479396487971b310df00322e4b\AndroidManifest.xml:22:5-67
MERGED from [com.google.firebase:firebase-measurement-connector-impl:16.0.1] C:\Users\yusuf\.gradle\caches\transforms-1\files-1.1\firebase-measurement-connector-impl-16.0.1.aar\97b65a479396487971b310df00322e4b\AndroidManifest.xml:22:5-67
MERGED from [com.google.firebase:firebase-analytics:16.0.1] C:\Users\yusuf\.gradle\caches\transforms-1\files-1.1\firebase-analytics-16.0.1.aar\595601872184515886f1e677ebaffeb3\AndroidManifest.xml:23:5-67
MERGED from [com.google.firebase:firebase-analytics:16.0.1] C:\Users\yusuf\.gradle\caches\transforms-1\files-1.1\firebase-analytics-16.0.1.aar\595601872184515886f1e677ebaffeb3\AndroidManifest.xml:23:5-67
MERGED from [com.google.firebase:firebase-analytics-impl:16.1.1] C:\Users\yusuf\.gradle\caches\transforms-1\files-1.1\firebase-analytics-impl-16.1.1.aar\a51e965db430d9051ee9f56fcddd3d44\AndroidManifest.xml:23:5-67
MERGED from [com.google.firebase:firebase-analytics-impl:16.1.1] C:\Users\yusuf\.gradle\caches\transforms-1\files-1.1\firebase-analytics-impl-16.1.1.aar\a51e965db430d9051ee9f56fcddd3d44\AndroidManifest.xml:23:5-67
MERGED from [com.google.firebase:firebase-iid:16.0.0] C:\Users\yusuf\.gradle\caches\transforms-1\files-1.1\firebase-iid-16.0.0.aar\50294a9d5a6e9c0971f2637cf04318e9\AndroidManifest.xml:23:5-67
MERGED from [com.google.firebase:firebase-iid:16.0.0] C:\Users\yusuf\.gradle\caches\transforms-1\files-1.1\firebase-iid-16.0.0.aar\50294a9d5a6e9c0971f2637cf04318e9\AndroidManifest.xml:23:5-67
	android:name
		ADDED from [com.firebaseui:firebase-ui-database:4.1.0] C:\Users\yusuf\.gradle\caches\transforms-1\files-1.1\firebase-ui-database-4.1.0.aar\1aae8eddb8a833ee814cc88cce5f6850\AndroidManifest.xml:11:22-64
uses-permission#android.permission.ACCESS_NETWORK_STATE
ADDED from [com.google.firebase:firebase-measurement-connector-impl:16.0.1] C:\Users\yusuf\.gradle\caches\transforms-1\files-1.1\firebase-measurement-connector-impl-16.0.1.aar\97b65a479396487971b310df00322e4b\AndroidManifest.xml:23:5-79
MERGED from [com.google.firebase:firebase-analytics:16.0.1] C:\Users\yusuf\.gradle\caches\transforms-1\files-1.1\firebase-analytics-16.0.1.aar\595601872184515886f1e677ebaffeb3\AndroidManifest.xml:24:5-79
MERGED from [com.google.firebase:firebase-analytics:16.0.1] C:\Users\yusuf\.gradle\caches\transforms-1\files-1.1\firebase-analytics-16.0.1.aar\595601872184515886f1e677ebaffeb3\AndroidManifest.xml:24:5-79
MERGED from [com.google.firebase:firebase-analytics-impl:16.1.1] C:\Users\yusuf\.gradle\caches\transforms-1\files-1.1\firebase-analytics-impl-16.1.1.aar\a51e965db430d9051ee9f56fcddd3d44\AndroidManifest.xml:24:5-79
MERGED from [com.google.firebase:firebase-analytics-impl:16.1.1] C:\Users\yusuf\.gradle\caches\transforms-1\files-1.1\firebase-analytics-impl-16.1.1.aar\a51e965db430d9051ee9f56fcddd3d44\AndroidManifest.xml:24:5-79
MERGED from [com.google.firebase:firebase-iid:16.0.0] C:\Users\yusuf\.gradle\caches\transforms-1\files-1.1\firebase-iid-16.0.0.aar\50294a9d5a6e9c0971f2637cf04318e9\AndroidManifest.xml:22:5-79
MERGED from [com.google.firebase:firebase-iid:16.0.0] C:\Users\yusuf\.gradle\caches\transforms-1\files-1.1\firebase-iid-16.0.0.aar\50294a9d5a6e9c0971f2637cf04318e9\AndroidManifest.xml:22:5-79
	android:name
		ADDED from [com.google.firebase:firebase-measurement-connector-impl:16.0.1] C:\Users\yusuf\.gradle\caches\transforms-1\files-1.1\firebase-measurement-connector-impl-16.0.1.aar\97b65a479396487971b310df00322e4b\AndroidManifest.xml:23:22-76
uses-permission#android.permission.WAKE_LOCK
ADDED from [com.google.firebase:firebase-measurement-connector-impl:16.0.1] C:\Users\yusuf\.gradle\caches\transforms-1\files-1.1\firebase-measurement-connector-impl-16.0.1.aar\97b65a479396487971b310df00322e4b\AndroidManifest.xml:24:5-68
MERGED from [com.google.firebase:firebase-analytics:16.0.1] C:\Users\yusuf\.gradle\caches\transforms-1\files-1.1\firebase-analytics-16.0.1.aar\595601872184515886f1e677ebaffeb3\AndroidManifest.xml:25:5-68
MERGED from [com.google.firebase:firebase-analytics:16.0.1] C:\Users\yusuf\.gradle\caches\transforms-1\files-1.1\firebase-analytics-16.0.1.aar\595601872184515886f1e677ebaffeb3\AndroidManifest.xml:25:5-68
MERGED from [com.google.firebase:firebase-analytics-impl:16.1.1] C:\Users\yusuf\.gradle\caches\transforms-1\files-1.1\firebase-analytics-impl-16.1.1.aar\a51e965db430d9051ee9f56fcddd3d44\AndroidManifest.xml:25:5-68
MERGED from [com.google.firebase:firebase-analytics-impl:16.1.1] C:\Users\yusuf\.gradle\caches\transforms-1\files-1.1\firebase-analytics-impl-16.1.1.aar\a51e965db430d9051ee9f56fcddd3d44\AndroidManifest.xml:25:5-68
MERGED from [com.google.firebase:firebase-iid:16.0.0] C:\Users\yusuf\.gradle\caches\transforms-1\files-1.1\firebase-iid-16.0.0.aar\50294a9d5a6e9c0971f2637cf04318e9\AndroidManifest.xml:24:5-68
MERGED from [com.google.firebase:firebase-iid:16.0.0] C:\Users\yusuf\.gradle\caches\transforms-1\files-1.1\firebase-iid-16.0.0.aar\50294a9d5a6e9c0971f2637cf04318e9\AndroidManifest.xml:24:5-68
	android:name
		ADDED from [com.google.firebase:firebase-measurement-connector-impl:16.0.1] C:\Users\yusuf\.gradle\caches\transforms-1\files-1.1\firebase-measurement-connector-impl-16.0.1.aar\97b65a479396487971b310df00322e4b\AndroidManifest.xml:24:22-65
service#com.google.firebase.components.ComponentDiscoveryService
ADDED from [com.google.firebase:firebase-measurement-connector-impl:16.0.1] C:\Users\yusuf\.gradle\caches\transforms-1\files-1.1\firebase-measurement-connector-impl-16.0.1.aar\97b65a479396487971b310df00322e4b\AndroidManifest.xml:27:9-31:19
MERGED from [com.google.firebase:firebase-iid:16.0.0] C:\Users\yusuf\.gradle\caches\transforms-1\files-1.1\firebase-iid-16.0.0.aar\50294a9d5a6e9c0971f2637cf04318e9\AndroidManifest.xml:35:9-39:19
MERGED from [com.google.firebase:firebase-iid:16.0.0] C:\Users\yusuf\.gradle\caches\transforms-1\files-1.1\firebase-iid-16.0.0.aar\50294a9d5a6e9c0971f2637cf04318e9\AndroidManifest.xml:35:9-39:19
	android:name
		ADDED from [com.google.firebase:firebase-measurement-connector-impl:16.0.1] C:\Users\yusuf\.gradle\caches\transforms-1\files-1.1\firebase-measurement-connector-impl-16.0.1.aar\97b65a479396487971b310df00322e4b\AndroidManifest.xml:27:18-89
meta-data#com.google.firebase.components:com.google.firebase.analytics.connector.internal.AnalyticsConnectorRegistrar
ADDED from [com.google.firebase:firebase-measurement-connector-impl:16.0.1] C:\Users\yusuf\.gradle\caches\transforms-1\files-1.1\firebase-measurement-connector-impl-16.0.1.aar\97b65a479396487971b310df00322e4b\AndroidManifest.xml:28:13-30:85
	android:value
		ADDED from [com.google.firebase:firebase-measurement-connector-impl:16.0.1] C:\Users\yusuf\.gradle\caches\transforms-1\files-1.1\firebase-measurement-connector-impl-16.0.1.aar\97b65a479396487971b310df00322e4b\AndroidManifest.xml:30:17-82
	android:name
		ADDED from [com.google.firebase:firebase-measurement-connector-impl:16.0.1] C:\Users\yusuf\.gradle\caches\transforms-1\files-1.1\firebase-measurement-connector-impl-16.0.1.aar\97b65a479396487971b310df00322e4b\AndroidManifest.xml:29:17-139
uses-permission#com.google.android.finsky.permission.BIND_GET_INSTALL_REFERRER_SERVICE
ADDED from [com.google.firebase:firebase-analytics:16.0.1] C:\Users\yusuf\.gradle\caches\transforms-1\files-1.1\firebase-analytics-16.0.1.aar\595601872184515886f1e677ebaffeb3\AndroidManifest.xml:26:5-110
MERGED from [com.google.firebase:firebase-analytics-impl:16.1.1] C:\Users\yusuf\.gradle\caches\transforms-1\files-1.1\firebase-analytics-impl-16.1.1.aar\a51e965db430d9051ee9f56fcddd3d44\AndroidManifest.xml:26:5-110
MERGED from [com.google.firebase:firebase-analytics-impl:16.1.1] C:\Users\yusuf\.gradle\caches\transforms-1\files-1.1\firebase-analytics-impl-16.1.1.aar\a51e965db430d9051ee9f56fcddd3d44\AndroidManifest.xml:26:5-110
	android:name
		ADDED from [com.google.firebase:firebase-analytics:16.0.1] C:\Users\yusuf\.gradle\caches\transforms-1\files-1.1\firebase-analytics-16.0.1.aar\595601872184515886f1e677ebaffeb3\AndroidManifest.xml:26:22-107
receiver#com.google.android.gms.measurement.AppMeasurementReceiver
ADDED from [com.google.firebase:firebase-analytics:16.0.1] C:\Users\yusuf\.gradle\caches\transforms-1\files-1.1\firebase-analytics-16.0.1.aar\595601872184515886f1e677ebaffeb3\AndroidManifest.xml:29:9-33:20
	android:enabled
		ADDED from [com.google.firebase:firebase-analytics:16.0.1] C:\Users\yusuf\.gradle\caches\transforms-1\files-1.1\firebase-analytics-16.0.1.aar\595601872184515886f1e677ebaffeb3\AndroidManifest.xml:31:13-35
	android:exported
		ADDED from [com.google.firebase:firebase-analytics:16.0.1] C:\Users\yusuf\.gradle\caches\transforms-1\files-1.1\firebase-analytics-16.0.1.aar\595601872184515886f1e677ebaffeb3\AndroidManifest.xml:32:13-37
	android:name
		ADDED from [com.google.firebase:firebase-analytics:16.0.1] C:\Users\yusuf\.gradle\caches\transforms-1\files-1.1\firebase-analytics-16.0.1.aar\595601872184515886f1e677ebaffeb3\AndroidManifest.xml:30:13-85
receiver#com.google.android.gms.measurement.AppMeasurementInstallReferrerReceiver
ADDED from [com.google.firebase:firebase-analytics:16.0.1] C:\Users\yusuf\.gradle\caches\transforms-1\files-1.1\firebase-analytics-16.0.1.aar\595601872184515886f1e677ebaffeb3\AndroidManifest.xml:34:9-42:20
MERGED from [com.google.firebase:firebase-analytics-impl:16.1.1] C:\Users\yusuf\.gradle\caches\transforms-1\files-1.1\firebase-analytics-impl-16.1.1.aar\a51e965db430d9051ee9f56fcddd3d44\AndroidManifest.xml:29:9-37:20
MERGED from [com.google.firebase:firebase-analytics-impl:16.1.1] C:\Users\yusuf\.gradle\caches\transforms-1\files-1.1\firebase-analytics-impl-16.1.1.aar\a51e965db430d9051ee9f56fcddd3d44\AndroidManifest.xml:29:9-37:20
	android:enabled
		ADDED from [com.google.firebase:firebase-analytics:16.0.1] C:\Users\yusuf\.gradle\caches\transforms-1\files-1.1\firebase-analytics-16.0.1.aar\595601872184515886f1e677ebaffeb3\AndroidManifest.xml:36:13-35
	android:exported
		ADDED from [com.google.firebase:firebase-analytics:16.0.1] C:\Users\yusuf\.gradle\caches\transforms-1\files-1.1\firebase-analytics-16.0.1.aar\595601872184515886f1e677ebaffeb3\AndroidManifest.xml:37:13-36
	android:permission
		ADDED from [com.google.firebase:firebase-analytics:16.0.1] C:\Users\yusuf\.gradle\caches\transforms-1\files-1.1\firebase-analytics-16.0.1.aar\595601872184515886f1e677ebaffeb3\AndroidManifest.xml:38:13-69
	android:name
		ADDED from [com.google.firebase:firebase-analytics:16.0.1] C:\Users\yusuf\.gradle\caches\transforms-1\files-1.1\firebase-analytics-16.0.1.aar\595601872184515886f1e677ebaffeb3\AndroidManifest.xml:35:13-100
intent-filter#action:name:com.android.vending.INSTALL_REFERRER
ADDED from [com.google.firebase:firebase-analytics:16.0.1] C:\Users\yusuf\.gradle\caches\transforms-1\files-1.1\firebase-analytics-16.0.1.aar\595601872184515886f1e677ebaffeb3\AndroidManifest.xml:39:13-41:29
action#com.android.vending.INSTALL_REFERRER
ADDED from [com.google.firebase:firebase-analytics:16.0.1] C:\Users\yusuf\.gradle\caches\transforms-1\files-1.1\firebase-analytics-16.0.1.aar\595601872184515886f1e677ebaffeb3\AndroidManifest.xml:40:17-79
	android:name
		ADDED from [com.google.firebase:firebase-analytics:16.0.1] C:\Users\yusuf\.gradle\caches\transforms-1\files-1.1\firebase-analytics-16.0.1.aar\595601872184515886f1e677ebaffeb3\AndroidManifest.xml:40:25-76
service#com.google.android.gms.measurement.AppMeasurementService
ADDED from [com.google.firebase:firebase-analytics:16.0.1] C:\Users\yusuf\.gradle\caches\transforms-1\files-1.1\firebase-analytics-16.0.1.aar\595601872184515886f1e677ebaffeb3\AndroidManifest.xml:44:9-47:40
	android:enabled
		ADDED from [com.google.firebase:firebase-analytics:16.0.1] C:\Users\yusuf\.gradle\caches\transforms-1\files-1.1\firebase-analytics-16.0.1.aar\595601872184515886f1e677ebaffeb3\AndroidManifest.xml:46:13-35
	android:exported
		ADDED from [com.google.firebase:firebase-analytics:16.0.1] C:\Users\yusuf\.gradle\caches\transforms-1\files-1.1\firebase-analytics-16.0.1.aar\595601872184515886f1e677ebaffeb3\AndroidManifest.xml:47:13-37
	android:name
		ADDED from [com.google.firebase:firebase-analytics:16.0.1] C:\Users\yusuf\.gradle\caches\transforms-1\files-1.1\firebase-analytics-16.0.1.aar\595601872184515886f1e677ebaffeb3\AndroidManifest.xml:45:13-84
service#com.google.android.gms.measurement.AppMeasurementJobService
ADDED from [com.google.firebase:firebase-analytics:16.0.1] C:\Users\yusuf\.gradle\caches\transforms-1\files-1.1\firebase-analytics-16.0.1.aar\595601872184515886f1e677ebaffeb3\AndroidManifest.xml:48:9-52:72
	android:enabled
		ADDED from [com.google.firebase:firebase-analytics:16.0.1] C:\Users\yusuf\.gradle\caches\transforms-1\files-1.1\firebase-analytics-16.0.1.aar\595601872184515886f1e677ebaffeb3\AndroidManifest.xml:50:13-35
	android:exported
		ADDED from [com.google.firebase:firebase-analytics:16.0.1] C:\Users\yusuf\.gradle\caches\transforms-1\files-1.1\firebase-analytics-16.0.1.aar\595601872184515886f1e677ebaffeb3\AndroidManifest.xml:51:13-37
	android:permission
		ADDED from [com.google.firebase:firebase-analytics:16.0.1] C:\Users\yusuf\.gradle\caches\transforms-1\files-1.1\firebase-analytics-16.0.1.aar\595601872184515886f1e677ebaffeb3\AndroidManifest.xml:52:13-69
	android:name
		ADDED from [com.google.firebase:firebase-analytics:16.0.1] C:\Users\yusuf\.gradle\caches\transforms-1\files-1.1\firebase-analytics-16.0.1.aar\595601872184515886f1e677ebaffeb3\AndroidManifest.xml:49:13-87
uses-permission#com.google.android.c2dm.permission.RECEIVE
ADDED from [com.google.firebase:firebase-iid:16.0.0] C:\Users\yusuf\.gradle\caches\transforms-1\files-1.1\firebase-iid-16.0.0.aar\50294a9d5a6e9c0971f2637cf04318e9\AndroidManifest.xml:26:5-82
	android:name
		ADDED from [com.google.firebase:firebase-iid:16.0.0] C:\Users\yusuf\.gradle\caches\transforms-1\files-1.1\firebase-iid-16.0.0.aar\50294a9d5a6e9c0971f2637cf04318e9\AndroidManifest.xml:26:22-79
permission#${applicationId}.permission.C2D_MESSAGE
ADDED from [com.google.firebase:firebase-iid:16.0.0] C:\Users\yusuf\.gradle\caches\transforms-1\files-1.1\firebase-iid-16.0.0.aar\50294a9d5a6e9c0971f2637cf04318e9\AndroidManifest.xml:28:5-30:47
	android:protectionLevel
		ADDED from [com.google.firebase:firebase-iid:16.0.0] C:\Users\yusuf\.gradle\caches\transforms-1\files-1.1\firebase-iid-16.0.0.aar\50294a9d5a6e9c0971f2637cf04318e9\AndroidManifest.xml:30:9-44
	android:name
		ADDED from [com.google.firebase:firebase-iid:16.0.0] C:\Users\yusuf\.gradle\caches\transforms-1\files-1.1\firebase-iid-16.0.0.aar\50294a9d5a6e9c0971f2637cf04318e9\AndroidManifest.xml:29:9-63
permission#com.etxample.grumwelllap.listtutorial.permission.C2D_MESSAGE
ADDED from [com.google.firebase:firebase-iid:16.0.0] C:\Users\yusuf\.gradle\caches\transforms-1\files-1.1\firebase-iid-16.0.0.aar\50294a9d5a6e9c0971f2637cf04318e9\AndroidManifest.xml:28:5-30:47
	android:protectionLevel
		ADDED from [com.google.firebase:firebase-iid:16.0.0] C:\Users\yusuf\.gradle\caches\transforms-1\files-1.1\firebase-iid-16.0.0.aar\50294a9d5a6e9c0971f2637cf04318e9\AndroidManifest.xml:30:9-44
	android:name
		ADDED from [com.google.firebase:firebase-iid:16.0.0] C:\Users\yusuf\.gradle\caches\transforms-1\files-1.1\firebase-iid-16.0.0.aar\50294a9d5a6e9c0971f2637cf04318e9\AndroidManifest.xml:29:9-63
uses-permission#${applicationId}.permission.C2D_MESSAGE
ADDED from [com.google.firebase:firebase-iid:16.0.0] C:\Users\yusuf\.gradle\caches\transforms-1\files-1.1\firebase-iid-16.0.0.aar\50294a9d5a6e9c0971f2637cf04318e9\AndroidManifest.xml:32:5-79
	android:name
		ADDED from [com.google.firebase:firebase-iid:16.0.0] C:\Users\yusuf\.gradle\caches\transforms-1\files-1.1\firebase-iid-16.0.0.aar\50294a9d5a6e9c0971f2637cf04318e9\AndroidManifest.xml:32:22-76
uses-permission#com.etxample.grumwelllap.listtutorial.permission.C2D_MESSAGE
ADDED from [com.google.firebase:firebase-iid:16.0.0] C:\Users\yusuf\.gradle\caches\transforms-1\files-1.1\firebase-iid-16.0.0.aar\50294a9d5a6e9c0971f2637cf04318e9\AndroidManifest.xml:32:5-79
	android:name
		ADDED from [com.google.firebase:firebase-iid:16.0.0] C:\Users\yusuf\.gradle\caches\transforms-1\files-1.1\firebase-iid-16.0.0.aar\50294a9d5a6e9c0971f2637cf04318e9\AndroidManifest.xml:32:22-76
meta-data#com.google.firebase.components:com.google.firebase.iid.Registrar
ADDED from [com.google.firebase:firebase-iid:16.0.0] C:\Users\yusuf\.gradle\caches\transforms-1\files-1.1\firebase-iid-16.0.0.aar\50294a9d5a6e9c0971f2637cf04318e9\AndroidManifest.xml:36:13-38:85
	android:value
		ADDED from [com.google.firebase:firebase-iid:16.0.0] C:\Users\yusuf\.gradle\caches\transforms-1\files-1.1\firebase-iid-16.0.0.aar\50294a9d5a6e9c0971f2637cf04318e9\AndroidManifest.xml:38:17-82
	android:name
		ADDED from [com.google.firebase:firebase-iid:16.0.0] C:\Users\yusuf\.gradle\caches\transforms-1\files-1.1\firebase-iid-16.0.0.aar\50294a9d5a6e9c0971f2637cf04318e9\AndroidManifest.xml:37:17-96
receiver#com.google.firebase.iid.FirebaseInstanceIdReceiver
ADDED from [com.google.firebase:firebase-iid:16.0.0] C:\Users\yusuf\.gradle\caches\transforms-1\files-1.1\firebase-iid-16.0.0.aar\50294a9d5a6e9c0971f2637cf04318e9\AndroidManifest.xml:41:9-50:20
	android:exported
		ADDED from [com.google.firebase:firebase-iid:16.0.0] C:\Users\yusuf\.gradle\caches\transforms-1\files-1.1\firebase-iid-16.0.0.aar\50294a9d5a6e9c0971f2637cf04318e9\AndroidManifest.xml:43:13-36
	android:permission
		ADDED from [com.google.firebase:firebase-iid:16.0.0] C:\Users\yusuf\.gradle\caches\transforms-1\files-1.1\firebase-iid-16.0.0.aar\50294a9d5a6e9c0971f2637cf04318e9\AndroidManifest.xml:44:13-73
	android:name
		ADDED from [com.google.firebase:firebase-iid:16.0.0] C:\Users\yusuf\.gradle\caches\transforms-1\files-1.1\firebase-iid-16.0.0.aar\50294a9d5a6e9c0971f2637cf04318e9\AndroidManifest.xml:42:13-78
intent-filter#action:name:com.google.android.c2dm.intent.RECEIVE+category:name:${applicationId}
ADDED from [com.google.firebase:firebase-iid:16.0.0] C:\Users\yusuf\.gradle\caches\transforms-1\files-1.1\firebase-iid-16.0.0.aar\50294a9d5a6e9c0971f2637cf04318e9\AndroidManifest.xml:45:13-49:29
intent-filter#action:name:com.google.android.c2dm.intent.RECEIVE+category:name:com.etxample.grumwelllap.listtutorial
ADDED from [com.google.firebase:firebase-iid:16.0.0] C:\Users\yusuf\.gradle\caches\transforms-1\files-1.1\firebase-iid-16.0.0.aar\50294a9d5a6e9c0971f2637cf04318e9\AndroidManifest.xml:45:13-49:29
action#com.google.android.c2dm.intent.RECEIVE
ADDED from [com.google.firebase:firebase-iid:16.0.0] C:\Users\yusuf\.gradle\caches\transforms-1\files-1.1\firebase-iid-16.0.0.aar\50294a9d5a6e9c0971f2637cf04318e9\AndroidManifest.xml:46:17-81
	android:name
		ADDED from [com.google.firebase:firebase-iid:16.0.0] C:\Users\yusuf\.gradle\caches\transforms-1\files-1.1\firebase-iid-16.0.0.aar\50294a9d5a6e9c0971f2637cf04318e9\AndroidManifest.xml:46:25-78
category#${applicationId}
ADDED from [com.google.firebase:firebase-iid:16.0.0] C:\Users\yusuf\.gradle\caches\transforms-1\files-1.1\firebase-iid-16.0.0.aar\50294a9d5a6e9c0971f2637cf04318e9\AndroidManifest.xml:48:17-61
	android:name
		ADDED from [com.google.firebase:firebase-iid:16.0.0] C:\Users\yusuf\.gradle\caches\transforms-1\files-1.1\firebase-iid-16.0.0.aar\50294a9d5a6e9c0971f2637cf04318e9\AndroidManifest.xml:48:27-58
category#com.etxample.grumwelllap.listtutorial
ADDED from [com.google.firebase:firebase-iid:16.0.0] C:\Users\yusuf\.gradle\caches\transforms-1\files-1.1\firebase-iid-16.0.0.aar\50294a9d5a6e9c0971f2637cf04318e9\AndroidManifest.xml:48:17-61
	android:name
		ADDED from [com.google.firebase:firebase-iid:16.0.0] C:\Users\yusuf\.gradle\caches\transforms-1\files-1.1\firebase-iid-16.0.0.aar\50294a9d5a6e9c0971f2637cf04318e9\AndroidManifest.xml:48:27-58
service#com.google.firebase.iid.FirebaseInstanceIdService
ADDED from [com.google.firebase:firebase-iid:16.0.0] C:\Users\yusuf\.gradle\caches\transforms-1\files-1.1\firebase-iid-16.0.0.aar\50294a9d5a6e9c0971f2637cf04318e9\AndroidManifest.xml:56:9-62:19
	android:exported
		ADDED from [com.google.firebase:firebase-iid:16.0.0] C:\Users\yusuf\.gradle\caches\transforms-1\files-1.1\firebase-iid-16.0.0.aar\50294a9d5a6e9c0971f2637cf04318e9\AndroidManifest.xml:58:13-36
	android:name
		ADDED from [com.google.firebase:firebase-iid:16.0.0] C:\Users\yusuf\.gradle\caches\transforms-1\files-1.1\firebase-iid-16.0.0.aar\50294a9d5a6e9c0971f2637cf04318e9\AndroidManifest.xml:57:13-77
intent-filter#action:name:com.google.firebase.INSTANCE_ID_EVENT
ADDED from [com.google.firebase:firebase-iid:16.0.0] C:\Users\yusuf\.gradle\caches\transforms-1\files-1.1\firebase-iid-16.0.0.aar\50294a9d5a6e9c0971f2637cf04318e9\AndroidManifest.xml:59:13-61:29
	android:priority
		ADDED from [com.google.firebase:firebase-iid:16.0.0] C:\Users\yusuf\.gradle\caches\transforms-1\files-1.1\firebase-iid-16.0.0.aar\50294a9d5a6e9c0971f2637cf04318e9\AndroidManifest.xml:59:28-51
action#com.google.firebase.INSTANCE_ID_EVENT
ADDED from [com.google.firebase:firebase-iid:16.0.0] C:\Users\yusuf\.gradle\caches\transforms-1\files-1.1\firebase-iid-16.0.0.aar\50294a9d5a6e9c0971f2637cf04318e9\AndroidManifest.xml:60:17-80
	android:name
		ADDED from [com.google.firebase:firebase-iid:16.0.0] C:\Users\yusuf\.gradle\caches\transforms-1\files-1.1\firebase-iid-16.0.0.aar\50294a9d5a6e9c0971f2637cf04318e9\AndroidManifest.xml:60:25-77
provider#com.google.firebase.provider.FirebaseInitProvider
ADDED from [com.google.firebase:firebase-common:16.0.0] C:\Users\yusuf\.gradle\caches\transforms-1\files-1.1\firebase-common-16.0.0.aar\c4ca5a39e0ebd97010292d0cbe3f7002\AndroidManifest.xml:9:9-13:39
	android:authorities
		ADDED from [com.google.firebase:firebase-common:16.0.0] C:\Users\yusuf\.gradle\caches\transforms-1\files-1.1\firebase-common-16.0.0.aar\c4ca5a39e0ebd97010292d0cbe3f7002\AndroidManifest.xml:11:13-72
	android:exported
		ADDED from [com.google.firebase:firebase-common:16.0.0] C:\Users\yusuf\.gradle\caches\transforms-1\files-1.1\firebase-common-16.0.0.aar\c4ca5a39e0ebd97010292d0cbe3f7002\AndroidManifest.xml:12:13-37
	android:initOrder
		ADDED from [com.google.firebase:firebase-common:16.0.0] C:\Users\yusuf\.gradle\caches\transforms-1\files-1.1\firebase-common-16.0.0.aar\c4ca5a39e0ebd97010292d0cbe3f7002\AndroidManifest.xml:13:13-36
	android:name
		ADDED from [com.google.firebase:firebase-common:16.0.0] C:\Users\yusuf\.gradle\caches\transforms-1\files-1.1\firebase-common-16.0.0.aar\c4ca5a39e0ebd97010292d0cbe3f7002\AndroidManifest.xml:10:13-77
activity#com.google.android.gms.common.api.GoogleApiActivity
ADDED from [com.google.android.gms:play-services-base:15.0.1] C:\Users\yusuf\.gradle\caches\transforms-1\files-1.1\play-services-base-15.0.1.aar\6c69b7ecc14d4fa07c1377a37f83b37b\AndroidManifest.xml:23:9-26:75
	android:exported
		ADDED from [com.google.android.gms:play-services-base:15.0.1] C:\Users\yusuf\.gradle\caches\transforms-1\files-1.1\play-services-base-15.0.1.aar\6c69b7ecc14d4fa07c1377a37f83b37b\AndroidManifest.xml:25:13-37
	android:theme
		ADDED from [com.google.android.gms:play-services-base:15.0.1] C:\Users\yusuf\.gradle\caches\transforms-1\files-1.1\play-services-base-15.0.1.aar\6c69b7ecc14d4fa07c1377a37f83b37b\AndroidManifest.xml:26:13-72
	android:name
		ADDED from [com.google.android.gms:play-services-base:15.0.1] C:\Users\yusuf\.gradle\caches\transforms-1\files-1.1\play-services-base-15.0.1.aar\6c69b7ecc14d4fa07c1377a37f83b37b\AndroidManifest.xml:24:13-79
meta-data#com.google.android.gms.version
ADDED from [com.google.android.gms:play-services-basement:15.0.1] C:\Users\yusuf\.gradle\caches\transforms-1\files-1.1\play-services-basement-15.0.1.aar\c06bedfce507ade715bc1e7610c24a68\AndroidManifest.xml:23:9-25:69
	android:value
		ADDED from [com.google.android.gms:play-services-basement:15.0.1] C:\Users\yusuf\.gradle\caches\transforms-1\files-1.1\play-services-basement-15.0.1.aar\c06bedfce507ade715bc1e7610c24a68\AndroidManifest.xml:25:13-66
	android:name
		ADDED from [com.google.android.gms:play-services-basement:15.0.1] C:\Users\yusuf\.gradle\caches\transforms-1\files-1.1\play-services-basement-15.0.1.aar\c06bedfce507ade715bc1e7610c24a68\AndroidManifest.xml:24:13-58
